[
  {
    "method": "POST",
    "path": "/signup",
    "description": "Register a new user. Sends a confirmation email with a validation token.",
    "auth_required": false,
    "tags": [
      "auth",
      "users"
    ],
    "params": [
      {
        "name": "username",
        "type": "String",
        "required": true,
        "desc": "Unique username"
      },
      {
        "name": "email",
        "type": "String",
        "required": true,
        "desc": "Valid email address"
      },
      {
        "name": "password",
        "type": "String",
        "required": true,
        "desc": "Minimum 8 characters"
      }
    ],
    "responses": [
      {
        "code": 201,
        "desc": "User created",
        "example": {
          "message": "Confirmation email sent"
        }
      },
      {
        "code": 400,
        "desc": "Validation failed",
        "example": {
          "error": "All fields are required"
        }
      },
      {
        "code": 400,
        "desc": "Validation failed",
        "example": {
          "error": "Invalid email format"
        }
      },
      {
        "code": 400,
        "desc": "Validation failed",
        "example": {
          "error": "Password too short (min 8 chars)"
        }
      },
      {
        "code": 400,
        "desc": "Validation failed",
        "example": {
          "error": "Username already registered"
        }
      },
      {
        "code": 400,
        "desc": "Validation failed",
        "example": {
          "error": "Email already registered"
        }
      }
    ]
  },
  {
    "method": "GET",
    "path": "/confirm",
    "description": "Confirm user email using the token sent during registration.",
    "auth_required": false,
    "tags": [
      "auth",
      "email"
    ],
    "params": [
      {
        "name": "token",
        "type": "String",
        "required": true,
        "desc": "Confirmation token sent via email"
      }
    ],
    "responses": [
      {
        "code": 200,
        "desc": "Email confirmed",
        "example": {
          "message": "Email confirmed successfully!"
        }
      },
      {
        "code": 400,
        "desc": "Invalid or missing token",
        "example": {
          "error": "Invalid or expired token"
        }
      }
    ]
  },
  {
    "method": "GET",
    "path": "/me",
    "description": "Get the current authenticated user information.",
    "auth_required": true,
    "tags": [
      "user",
      "email"
    ],
    "params": [],
    "responses": [
      {
        "code": 200,
        "desc": "User",
        "example": {
          "id": 42,
          "username": "newhandle",
          "email": "new@example.com",
          "created_at": "2025-07-28T14:22:01Z",
          "updated_at": "2025-07-28T14:22:01Z",
          "confirmed_at": "2025-07-28T14:22:01Z",
          "notifications_enabled": "true"
        }
      },
      {
        "code": 401,
        "desc": "Unauthorized",
        "example": {
          "error": "Unauthorized"
        }
      },
      {
        "code": 404,
        "desc": "Invalid user",
        "example": {
          "error": "Invalid user"
        }
      }
    ]
  },
  {
    "method": "POST",
    "path": "/me/update",
    "description": "Update the current user's profile. Supports changing username, email, and/or password.",
    "auth_required": true,
    "tags": [
      "users",
      "profile"
    ],
    "params": [
      {
        "name": "username",
        "type": "String",
        "required": false,
        "desc": "New unique username"
      },
      {
        "name": "email",
        "type": "String",
        "required": false,
        "desc": "New valid email address"
      },
      {
        "name": "notifications_enabled",
        "type": "Boolean",
        "required": false,
        "desc": "Activate or deactivate notifications"
      },
      {
        "name": "password",
        "type": "String",
        "required": false,
        "desc": "New password (minimum 8 characters)"
      }
    ],
    "responses": [
      {
        "code": 200,
        "desc": "Profile updated",
        "example": {
          "id": 3,
          "username": "newhandle",
          "email": "new@example.com",
          "created_at": "2025-07-28T14:22:01Z",
          "updated_at": "2025-07-29T10:11:45Z",
          "notifications_enabled": "false"
        }
      },
      {
        "code": 400,
        "desc": "Validation failed",
        "example": {
          "error": "Password too short (min 8 chars)"
        }
      },
      {
        "code": 400,
        "desc": "Failed to update profile",
        "example": {
          "error": "Failed to update profile"
        }
      }
    ]
  },
  {
    "method": "POST",
    "path": "/login",
    "description": "Authenticate a user using either username or email. Returns a session token on success.",
    "auth_required": false,
    "tags": [
      "auth",
      "sessions"
    ],
    "params": [
      {
        "name": "identity",
        "type": "String",
        "required": true,
        "desc": "Username or email address"
      },
      {
        "name": "password",
        "type": "String",
        "required": true,
        "desc": "User's password"
      }
    ],
    "responses": [
      {
        "code": 200,
        "desc": "Login successful",
        "example": {
          "token": "<jwt_token_here>"
        }
      },
      {
        "code": 400,
        "desc": "Missing identity or password",
        "example": {
          "error": "Missing identity or password"
        }
      },
      {
        "code": 401,
        "desc": "Invalid credentials",
        "example": {
          "error": "Invalid credentials"
        }
      }
    ]
  },
  {
    "method": "POST",
    "path": "/logout",
    "description": "Invalidate current session token. For JWT-based apps, the client must delete the token locally.",
    "auth_required": true,
    "tags": [
      "auth",
      "sessions"
    ],
    "params": [],
    "responses": [
      {
        "code": 200,
        "desc": "Logout successful",
        "example": {
          "message": "Logged out successfully"
        }
      }
    ]
  },
  {
    "method": "POST",
    "path": "/images/:id/comments",
    "description": "Add a comment to a specific image. Authenticated users only.",
    "auth_required": true,
    "tags": [
      "comments",
      "images"
    ],
    "params": [
      {
        "name": "content",
        "type": "String",
        "required": true,
        "desc": "The body of the comment"
      }
    ],
    "responses": [
      {
        "code": 201,
        "desc": "Comment created",
        "example": {
          "id": 13,
          "user_id": 4,
          "image_id": 7,
          "content": "Amazing overlay!",
          "created_at": "2024-07-25T12:00:00Z"
        }
      },
      {
        "code": 400,
        "desc": "Missing or empty comment",
        "example": {
          "error": "Missing or empty comment"
        }
      },
      {
        "code": 404,
        "desc": "Image not found",
        "example": {
          "error": "Image not found"
        }
      }
    ]
  },
  {
    "method": "GET",
    "path": "/stickers",
    "description": "Get the list of available sticker overlays. Public route used by the editor.",
    "auth_required": false,
    "tags": [
      "stickers"
    ],
    "params": [],
    "responses": [
      {
        "code": 200,
        "desc": "List of stickers",
        "example": [
          {
            "id": 1,
            "name": "Hat",
            "file_path": "/stickers/hat.png"
          },
          {
            "id": 2,
            "name": "Laser Eyes",
            "file_path": "/stickers/lasereyes.png"
          }
        ]
      }
    ]
  },
  {
    "method": "POST",
    "path": "/password/forgot",
    "description": "Request a password reset link.If the email exists, a reset token is sent.The response is always generic to prevent user enumeration.",
    "auth_required": false,
    "tags": [
      "password",
      "reset"
    ],
    "params": [
      {
        "name": "email",
        "type": "String",
        "required": true,
        "desc": "The email address of the user requesting a password reset."
      }
    ],
    "responses": [
      {
        "code": 200,
        "desc": "Reset link sent (if account exists)",
        "example": {
          "message": "If your email exists, a reset link has been sent"
        }
      },
      {
        "code": 400,
        "desc": "Missing email",
        "example": {
          "error": "Missing email"
        }
      }
    ]
  },
  {
    "method": "POST",
    "path": "/password/reset",
    "description": "Request a password reset link. If the email exists, a reset token is sent.The response is always generic to prevent user enumeration.",
    "auth_required": false,
    "tags": [
      "password",
      "reset"
    ],
    "params": [
      {
        "name": "token",
        "type": "String",
        "required": true,
        "desc": "Reset token received by email"
      },
      {
        "name": "password",
        "type": "String",
        "required": true,
        "desc": "New password (minimum 8 characters)"
      }
    ],
    "responses": [
      {
        "code": 200,
        "desc": "Password reset successfully",
        "example": {
          "message": "Password reset successfully"
        }
      },
      {
        "code": 400,
        "desc": "Missing token or password",
        "example": {
          "error": "Missing token or password"
        }
      },
      {
        "code": 400,
        "desc": "Password too short",
        "example": {
          "error": "Password too short (min 8 chars)"
        }
      },
      {
        "code": 400,
        "desc": "Invalid or expired token",
        "example": {
          "error": "Invalid or expired token"
        }
      }
    ]
  },
  {
    "method": "POST",
    "path": "/images/:id/like",
    "description": "Like a specific image. Only authenticated users may like images.",
    "auth_required": true,
    "tags": [
      "likes",
      "images"
    ],
    "params": [],
    "responses": [
      {
        "code": 200,
        "desc": "Image liked",
        "example": {
          "message": "Image liked"
        }
      },
      {
        "code": 404,
        "desc": "Image not found",
        "example": {
          "error": "Image not found"
        }
      },
      {
        "code": 400,
        "desc": "Image already liked",
        "example": {
          "error": "Image already liked"
        }
      }
    ]
  },
  {
    "method": "DELETE",
    "path": "/images/:id/unlike",
    "description": "Unlike a previously liked image. Only authenticated users may unlike.",
    "auth_required": true,
    "tags": [
      "likes",
      "images"
    ],
    "params": [],
    "responses": [
      {
        "code": 200,
        "desc": "Image unliked",
        "example": {
          "message": "Image unliked"
        }
      },
      {
        "code": 404,
        "desc": "Image not found",
        "example": {
          "error": "Image not found"
        }
      },
      {
        "code": 400,
        "desc": "Image not liked",
        "example": {
          "error": "Image not liked"
        }
      }
    ]
  },
  {
    "method": "GET",
    "path": "/gallery",
    "description": "List all public images in the gallery with support for pagination, sorting, and custom per-page limits.",
    "auth_required": false,
    "tags": [
      "gallery",
      "images"
    ],
    "params": [
      {
        "name": "page",
        "type": "Integer",
        "required": false,
        "desc": "Page number (default: 1)"
      },
      {
        "name": "per_page",
        "type": "Integer",
        "required": false,
        "desc": "Items per page (default: 10, max: 100)"
      },
      {
        "name": "sort_by",
        "type": "String",
        "required": false,
        "desc": "Sort field: created_at, likes, or comments"
      },
      {
        "name": "order",
        "type": "String",
        "required": false,
        "desc": "`asc` or `desc` (default: desc)"
      }
    ],
    "responses": [
      {
        "code": 200,
        "desc": "Paginated images",
        "example": {
          "page": 1,
          "per_page": 5,
          "total": 32,
          "total_pages": 7,
          "images": [
            {
              "id": 3,
              "file_path": "/images/abc.png",
              "user_id": 1,
              "created_at": "...",
              "user": {
                "id": 4,
                "username": "alice",
                "created_at": "2025-07-27T12:00:00Z"
              },
              "comments": [
                {
                  "id": 42,
                  "image_id": 3,
                  "user_id": 7,
                  "content": "awesome!",
                  "created_at": "",
                  "username": "alice",
                  "user_created_at": ""
                }
              ],
              "likes": []
            }
          ]
        }
      }
    ]
  },
  {
    "method": "GET",
    "path": "/images/mine",
    "description": "Retrieve the current user's active (non-archived) images.",
    "auth_required": true,
    "tags": [
      "images"
    ],
    "params": [],
    "responses": [
      {
        "code": 200,
        "desc": "List of active images",
        "example": [
          {
            "id": 1,
            "file_path": "/images/abc.png",
            "user_id": 4,
            "deleted_at": "null",
            "user": {
              "id": 4,
              "username": "alice",
              "created_at": "2025-07-27T12:00:00Z"
            },
            "comments": [],
            "likes": []
          }
        ]
      }
    ]
  },
  {
    "method": "GET",
    "path": "/images/archived",
    "description": "Retrieve the current user's archived (soft-deleted) images.",
    "auth_required": true,
    "tags": [
      "images"
    ],
    "params": [],
    "responses": [
      {
        "code": 200,
        "desc": "List of archived images",
        "example": [
          {
            "id": 2,
            "file_path": "/images/old.png",
            "user_id": 4,
            "deleted_at": "2024-01-01T10:00:00Z",
            "user": {
              "id": 4,
              "username": "alice",
              "created_at": "2025-07-27T12:00:00Z"
            },
            "comments": [],
            "likes": []
          }
        ]
      }
    ]
  },
  {
    "method": "POST",
    "path": "/images/:id/archive",
    "description": "Soft-delete (archive) an image owned by the current user.",
    "auth_required": true,
    "tags": [
      "images"
    ],
    "params": [],
    "responses": [
      {
        "code": 200,
        "desc": "Image archived",
        "example": {
          "message": "Image archived successfully"
        }
      },
      {
        "code": 403,
        "desc": "Unauthorized (not owner)",
        "example": {
          "error": "Unauthorized"
        }
      },
      {
        "code": 404,
        "desc": "Image not found",
        "example": {
          "error": "Image not found"
        }
      }
    ]
  },
  {
    "method": "DELETE",
    "path": "/images/:id",
    "description": "Permanently delete an image owned by the current user.",
    "auth_required": true,
    "tags": [
      "images"
    ],
    "params": [],
    "responses": [
      {
        "code": 200,
        "desc": "Image deleted",
        "example": {
          "message": "Image deleted successfully"
        }
      },
      {
        "code": 403,
        "desc": "Unauthorized (not owner)",
        "example": {
          "error": "Unauthorized"
        }
      },
      {
        "code": 404,
        "desc": "Image not found",
        "example": {
          "error": "Image not found"
        }
      }
    ]
  },
  {
    "method": "POST",
    "path": "/images",
    "description": "Upload a new image with sticker overlays. Accepts base64, file upload, remote URL, or local path. Composites stickers server-side and returns enriched image metadata.",
    "auth_required": true,
    "tags": [
      "images",
      "stickers"
    ],
    "params": [
      {
        "name": "image",
        "type": "String",
        "required": true,
        "desc": "Base image to be used (can be data URL, remote URL, local path, or uploaded file)"
      },
      {
        "name": "preview_width",
        "type": "Integer",
        "required": true,
        "desc": "Preview width relative to the x, y and scale"
      },
      {
        "name": "preview_height",
        "type": "Integer",
        "required": true,
        "desc": "Preview height relative to the x, y and scale"
      },
      {
        "name": "stickers",
        "type": "Array",
        "required": true,
        "desc": "Array of sticker overlays with position and scale (layered first-to-last)"
      }
    ],
    "responses": [
      {
        "code": 201,
        "desc": "Image created",
        "example": {
          "id": 42,
          "user_id": 4,
          "file_path": "/uploads/user_04/2025/07/28/image_a1b2c3d4.png",
          "created_at": "2025-07-28T15:42:00Z",
          "deleted_at": null,
          "user": {
            "id": 4,
            "username": "alice",
            "created_at": "2025-07-27T12:00:00Z"
          },
          "comments": [],
          "likes": []
        }
      },
      {
        "code": 400,
        "desc": "Invalid or missing input",
        "example": {
          "error": "Invalid image data"
        }
      },
      {
        "code": 401,
        "desc": "Unauthorized",
        "example": {
          "error": "Unauthorized"
        }
      },
      {
        "code": 500,
        "desc": "Server-side failure",
        "example": {
          "error": "Failed to save image"
        }
      }
    ]
  }
]